[
    {
        "key": "GUAO",
        "latitude": "43.471100",
        "longitude": "87.177300",
        "name": "GUAO"
    },
    {
        "key": "SCIP",
        "latitude": "32.910000",
        "longitude": "-118.490000",
        "name": "SCIP"
    },
    {
        "key": "GOP7",
        "latitude": "49.913667",
        "longitude": "14.785603",
        "name": "GOP7"
    },
    {
        "key": "SNI1",
        "latitude": "33.247875",
        "longitude": "-119.524364",
        "name": "SNI1"
    },
    {
        "key": "FALE",
        "latitude": "-13.832200",
        "longitude": "-171.999500",
        "name": "FALE"
    },
    {
        "key": "SPK1",
        "latitude": "34.059342",
        "longitude": "-118.646161",
        "name": "SPK1"
    },
    {
        "key": "SAMO",
        "latitude": "-13.849211",
        "longitude": "-171.738419",
        "name": "SAMO"
    },
    {
        "key": "HNLC",
        "latitude": "21.303300",
        "longitude": "-157.864500",
        "name": "HNLC"
    },
    {
        "key": "RESO",
        "latitude": "74.690800",
        "longitude": "-94.893300",
        "name": "RESO"
    },
    {
        "key": "RCMN",
        "latitude": "-1.221000",
        "longitude": "36.893778",
        "name": "RCMN"
    },
    {
        "key": "HOLP",
        "latitude": "33.924539",
        "longitude": "-118.168169",
        "name": "HOLP"
    },
    {
        "key": "HOLM",
        "latitude": "70.736400",
        "longitude": "-117.760900",
        "name": "HOLM"
    },
    {
        "key": "HNPT",
        "latitude": "38.588817",
        "longitude": "-76.130372",
        "name": "HNPT"
    },
    {
        "key": "EUSM",
        "latitude": "5.145569",
        "longitude": "100.494094",
        "name": "EUSM"
    },
    {
        "key": "EPRT",
        "latitude": "44.908711",
        "longitude": "-66.992131",
        "name": "EPRT"
    },
    {
        "key": "CMUM",
        "latitude": "18.760875",
        "longitude": "98.932378",
        "name": "CMUM"
    },
    {
        "key": "TUVA",
        "latitude": "-8.525292",
        "longitude": "179.196561",
        "name": "TUVA"
    },
    {
        "key": "UCLP",
        "latitude": "34.069122",
        "longitude": "-118.441911",
        "name": "UCLP"
    },
    {
        "key": "UNX2",
        "latitude": "-33.917767",
        "longitude": "151.231874",
        "name": "UNX2"
    },
    {
        "key": "UNX3",
        "latitude": "-33.917767",
        "longitude": "151.231874",
        "name": "UNX3"
    },
    {
        "key": "COYQ",
        "latitude": "-45.514300",
        "longitude": "-71.892100",
        "name": "COYQ"
    },
    {
        "key": "CRAO",
        "latitude": "44.413261",
        "longitude": "33.990983",
        "name": "CRAO"
    },
    {
        "key": "DLTV",
        "latitude": "11.945000",
        "longitude": "108.482000",
        "name": "DLTV"
    },
    {
        "key": "TANA",
        "latitude": "11.569072",
        "longitude": "37.329106",
        "name": "TANA"
    },
    {
        "key": "CUUT",
        "latitude": "13.735991",
        "longitude": "100.533935",
        "name": "CUUT"
    },
    {
        "key": "TNML",
        "latitude": "24.797955",
        "longitude": "120.987344",
        "name": "TNML"
    },
    {
        "key": "TONG",
        "latitude": "-21.144714",
        "longitude": "-175.179222",
        "name": "TONG"
    },
    {
        "key": "IRKT",
        "latitude": "52.219000",
        "longitude": "104.316200",
        "name": "IRKT"
    },
    {
        "key": "ISBA",
        "latitude": "33.341414",
        "longitude": "44.438403",
        "name": "ISBA"
    },
    {
        "key": "NURK",
        "latitude": "-1.944597",
        "longitude": "30.089903",
        "name": "NURK"
    },
    {
        "key": "MBAR",
        "latitude": "-0.601469",
        "longitude": "30.737876",
        "name": "MBAR"
    },
    {
        "key": "MANA",
        "latitude": "12.148939",
        "longitude": "-86.248994",
        "name": "MANA"
    },
    {
        "key": "LCK3",
        "latitude": "26.912179",
        "longitude": "80.955636",
        "name": "LCK3"
    },
    {
        "key": "PBRI",
        "latitude": "11.637780",
        "longitude": "92.712136",
        "name": "PBRI"
    },
    {
        "key": "NRL1",
        "latitude": "38.820753",
        "longitude": "-77.024403",
        "name": "NRL1"
    },
    {
        "key": "MCIL",
        "latitude": "24.290094",
        "longitude": "153.978661",
        "name": "MCIL"
    },
    {
        "key": "NAIN",
        "latitude": "56.536964",
        "longitude": "-61.688717",
        "name": "NAIN"
    },
    {
        "key": "MOIU",
        "latitude": "0.288320",
        "longitude": "35.290010",
        "name": "MOIU"
    },
    {
        "key": "NAUR",
        "latitude": "-0.551840",
        "longitude": "166.925550",
        "name": "NAUR"
    },
    {
        "key": "MFKG",
        "latitude": "-25.805014",
        "longitude": "25.539969",
        "name": "MFKG"
    },
    {
        "key": "NOT1",
        "latitude": "36.876108",
        "longitude": "14.989808",
        "name": "NOT1"
    },
    {
        "key": "PEN2",
        "latitude": "47.789725",
        "longitude": "19.281664",
        "name": "PEN2"
    },
    {
        "key": "LAE1",
        "latitude": "-6.673700",
        "longitude": "146.993200",
        "name": "LAE1"
    },
    {
        "key": "QIKI",
        "latitude": "67.559333",
        "longitude": "-64.033667",
        "name": "QIKI"
    },
    {
        "key": "PTVL",
        "latitude": "-17.749433",
        "longitude": "168.315025",
        "name": "PTVL"
    },
    {
        "key": "JNAV",
        "latitude": "21.004585",
        "longitude": "105.843947",
        "name": "JNAV"
    },
    {
        "key": "RABT",
        "latitude": "33.998103",
        "longitude": "-6.854289",
        "name": "RABT"
    },
    {
        "key": "ISPA",
        "latitude": "-27.124983",
        "longitude": "-109.344410",
        "name": "ISPA"
    },
    {
        "key": "KARR",
        "latitude": "-20.981436",
        "longitude": "117.097186",
        "name": "KARR"
    },
    {
        "key": "KHAR",
        "latitude": "50.005103",
        "longitude": "36.239008",
        "name": "KHAR"
    },
    {
        "key": "KSMV",
        "latitude": "35.955372",
        "longitude": "140.657675",
        "name": "KSMV"
    },
    {
        "key": "KZN2",
        "latitude": "55.790783",
        "longitude": "49.119244",
        "name": "KZN2"
    },
    {
        "key": "PGEN",
        "latitude": "6.064912",
        "longitude": "125.131662",
        "name": "PGEN"
    },
    {
        "key": "POHN",
        "latitude": "6.959944",
        "longitude": "158.210117",
        "name": "POHN"
    },
    {
        "key": "PPPC",
        "latitude": "9.772933",
        "longitude": "118.740234",
        "name": "PPPC"
    },
    {
        "key": "CGGN",
        "latitude": "10.123095",
        "longitude": "9.118312",
        "name": "CGGN"
    },
    {
        "key": "SHAO",
        "latitude": "31.099642",
        "longitude": "121.200445",
        "name": "SHAO"
    },
    {
        "key": "UZHL",
        "latitude": "48.632000",
        "longitude": "22.297600",
        "name": "UZHL"
    },
    {
        "key": "BTNG",
        "latitude": "1.438922",
        "longitude": "125.190431",
        "name": "BTNG"
    },
    {
        "key": "BJCO",
        "latitude": "6.384664",
        "longitude": "2.450022",
        "name": "BJCO"
    },
    {
        "key": "WES2",
        "latitude": "42.613336",
        "longitude": "-71.493328",
        "name": "WES2"
    },
    {
        "key": "BRUN",
        "latitude": "4.971178",
        "longitude": "114.952361",
        "name": "BRUN"
    },
    {
        "key": "YIBL",
        "latitude": "22.186458",
        "longitude": "56.112333",
        "name": "YIBL"
    },
    {
        "key": "ALRT",
        "latitude": "82.494294",
        "longitude": "-62.340461",
        "name": "ALRT"
    },
    {
        "key": "WLSN",
        "latitude": "34.226122",
        "longitude": "-118.055914",
        "name": "WLSN"
    },
    {
        "key": "YONS",
        "latitude": "37.541122",
        "longitude": "127.001344",
        "name": "YONS"
    },
    {
        "key": "ZWE2",
        "latitude": "55.700000",
        "longitude": "36.760000",
        "name": "ZWE2"
    },
    {
        "key": "USNO",
        "latitude": "38.918964",
        "longitude": "-77.066225",
        "name": "USNO"
    },
    {
        "key": "POL2",
        "latitude": "42.679800",
        "longitude": "74.694300",
        "name": "POL2"
    },
    {
        "key": "YAKT",
        "latitude": "62.030961",
        "longitude": "129.680300",
        "name": "YAKT"
    },
    {
        "key": "POAL",
        "latitude": "-30.074042",
        "longitude": "-51.119764",
        "name": "POAL"
    },
    {
        "key": "POLV",
        "latitude": "49.602614",
        "longitude": "34.542928",
        "name": "POLV"
    },
    {
        "key": "POTS",
        "latitude": "52.379297",
        "longitude": "13.066092",
        "name": "POTS"
    },
    {
        "key": "PRDS",
        "latitude": "50.871300",
        "longitude": "-114.293500",
        "name": "PRDS"
    },
    {
        "key": "WUHN",
        "latitude": "30.531653",
        "longitude": "114.357261",
        "name": "WUHN"
    },
    {
        "key": "XMIS",
        "latitude": "-10.449969",
        "longitude": "105.688494",
        "name": "XMIS"
    },
    {
        "key": "POVE",
        "latitude": "-8.709336",
        "longitude": "-63.896319",
        "name": "POVE"
    },
    {
        "key": "REYK",
        "latitude": "64.138783",
        "longitude": "-21.955483",
        "name": "REYK"
    },
    {
        "key": "PNGM",
        "latitude": "-2.043222",
        "longitude": "147.366000",
        "name": "PNGM"
    },
    {
        "key": "PIN1",
        "latitude": "33.610000",
        "longitude": "-116.460000",
        "name": "PIN1"
    },
    {
        "key": "PENC",
        "latitude": "47.789600",
        "longitude": "19.281522",
        "name": "PENC"
    },
    {
        "key": "YAR3",
        "latitude": "-29.046500",
        "longitude": "115.347147",
        "name": "YAR3"
    },
    {
        "key": "RGDG",
        "latitude": "-53.785839",
        "longitude": "-67.751528",
        "name": "RGDG"
    },
    {
        "key": "YARR",
        "latitude": "-29.046594",
        "longitude": "115.346969",
        "name": "YARR"
    },
    {
        "key": "YEBE",
        "latitude": "40.524897",
        "longitude": "-3.088631",
        "name": "YEBE"
    },
    {
        "key": "PERT",
        "latitude": "-31.801900",
        "longitude": "115.885200",
        "name": "PERT"
    },
    {
        "key": "PETS",
        "latitude": "53.023300",
        "longitude": "158.650136",
        "name": "PETS"
    },
    {
        "key": "PIMO",
        "latitude": "14.635719",
        "longitude": "121.077731",
        "name": "PIMO"
    },
    {
        "key": "PIE1",
        "latitude": "34.301506",
        "longitude": "-108.118927",
        "name": "PIE1"
    },
    {
        "key": "PICL",
        "latitude": "51.479808",
        "longitude": "-90.161975",
        "name": "PICL"
    },
    {
        "key": "YAR2",
        "latitude": "-29.046561",
        "longitude": "115.346972",
        "name": "YAR2"
    },
    {
        "key": "PRE3",
        "latitude": "-25.746494",
        "longitude": "28.224044",
        "name": "PRE3"
    },
    {
        "key": "PTAG",
        "latitude": "14.535442",
        "longitude": "121.040765",
        "name": "PTAG"
    },
    {
        "key": "WTZ3",
        "latitude": "49.144778",
        "longitude": "12.878639",
        "name": "WTZ3"
    },
    {
        "key": "WTZA",
        "latitude": "49.144225",
        "longitude": "12.878900",
        "name": "WTZA"
    },
    {
        "key": "WIND",
        "latitude": "-22.574919",
        "longitude": "17.089431",
        "name": "WIND"
    },
    {
        "key": "QUIN",
        "latitude": "39.974553",
        "longitude": "-120.944428",
        "name": "QUIN"
    },
    {
        "key": "RAEG",
        "latitude": "36.985700",
        "longitude": "-25.126389",
        "name": "RAEG"
    },
    {
        "key": "WSRT",
        "latitude": "52.914600",
        "longitude": "6.604500",
        "name": "WSRT"
    },
    {
        "key": "RBAY",
        "latitude": "-28.795546",
        "longitude": "32.078385",
        "name": "RBAY"
    },
    {
        "key": "RAMO",
        "latitude": "30.597758",
        "longitude": "34.763139",
        "name": "RAMO"
    },
    {
        "key": "WROC",
        "latitude": "51.113264",
        "longitude": "17.062028",
        "name": "WROC"
    },
    {
        "key": "REDU",
        "latitude": "50.001500",
        "longitude": "5.144881",
        "name": "REDU"
    },
    {
        "key": "QUI4",
        "latitude": "0.215158",
        "longitude": "-78.493608",
        "name": "QUI4"
    },
    {
        "key": "QUI3",
        "latitude": "0.215158",
        "longitude": "-78.493608",
        "name": "QUI3"
    },
    {
        "key": "PTGG",
        "latitude": "14.535402",
        "longitude": "121.041265",
        "name": "PTGG"
    },
    {
        "key": "PTBB",
        "latitude": "52.296189",
        "longitude": "10.459744",
        "name": "PTBB"
    },
    {
        "key": "WUH2",
        "latitude": "30.531700",
        "longitude": "114.357300",
        "name": "WUH2"
    },
    {
        "key": "RDSD",
        "latitude": "18.461397",
        "longitude": "-69.911300",
        "name": "RDSD"
    },
    {
        "key": "YEL2",
        "latitude": "62.481321",
        "longitude": "-114.480846",
        "name": "YEL2"
    },
    {
        "key": "WTZZ",
        "latitude": "49.144214",
        "longitude": "12.878906",
        "name": "WTZZ"
    },
    {
        "key": "WTZR",
        "latitude": "49.144197",
        "longitude": "12.878908",
        "name": "WTZR"
    },
    {
        "key": "WTZS",
        "latitude": "49.144786",
        "longitude": "12.878625",
        "name": "WTZS"
    },
    {
        "key": "QAQ1",
        "latitude": "60.715264",
        "longitude": "-46.047761",
        "name": "QAQ1"
    },
    {
        "key": "REUN",
        "latitude": "-21.208333",
        "longitude": "55.571667",
        "name": "REUN"
    },
    {
        "key": "PRE4",
        "latitude": "-25.746494",
        "longitude": "28.224044",
        "name": "PRE4"
    },
    {
        "key": "PARC",
        "latitude": "-53.137000",
        "longitude": "-70.879900",
        "name": "PARC"
    },
    {
        "key": "NNOR",
        "latitude": "-31.048739",
        "longitude": "116.192714",
        "name": "NNOR"
    },
    {
        "key": "ZECK",
        "latitude": "43.788392",
        "longitude": "41.565064",
        "name": "ZECK"
    },
    {
        "key": "NLIB",
        "latitude": "41.771592",
        "longitude": "-91.574892",
        "name": "NLIB"
    },
    {
        "key": "NKLG",
        "latitude": "0.353908",
        "longitude": "9.672126",
        "name": "NKLG"
    },
    {
        "key": "NIUM",
        "latitude": "-19.076567",
        "longitude": "-169.927067",
        "name": "NIUM"
    },
    {
        "key": "NOVM",
        "latitude": "55.030500",
        "longitude": "82.909489",
        "name": "NOVM"
    },
    {
        "key": "NRC1",
        "latitude": "45.454200",
        "longitude": "-75.623800",
        "name": "NRC1"
    },
    {
        "key": "NRMD",
        "latitude": "-22.228331",
        "longitude": "166.484883",
        "name": "NRMD"
    },
    {
        "key": "YSSK",
        "latitude": "47.029736",
        "longitude": "142.716719",
        "name": "YSSK"
    },
    {
        "key": "ZAMB",
        "latitude": "-15.425541",
        "longitude": "28.311012",
        "name": "ZAMB"
    },
    {
        "key": "NRIL",
        "latitude": "69.361833",
        "longitude": "88.359778",
        "name": "NRIL"
    },
    {
        "key": "NIST",
        "latitude": "39.995067",
        "longitude": "-105.262606",
        "name": "NIST"
    },
    {
        "key": "ZIM2",
        "latitude": "46.877092",
        "longitude": "7.465028",
        "name": "ZIM2"
    },
    {
        "key": "MTKA",
        "latitude": "35.679514",
        "longitude": "139.561386",
        "name": "MTKA"
    },
    {
        "key": "MTV1",
        "latitude": "-34.913592",
        "longitude": "-56.176300",
        "name": "MTV1"
    },
    {
        "key": "MRO1",
        "latitude": "-26.696639",
        "longitude": "116.637492",
        "name": "MRO1"
    },
    {
        "key": "MRL2",
        "latitude": "-41.576194",
        "longitude": "173.740753",
        "name": "MRL2"
    },
    {
        "key": "MRL1",
        "latitude": "-41.576194",
        "longitude": "173.740753",
        "name": "MRL1"
    },
    {
        "key": "MTV2",
        "latitude": "-34.913592",
        "longitude": "-56.176300",
        "name": "MTV2"
    },
    {
        "key": "ZIMM",
        "latitude": "46.877094",
        "longitude": "7.465272",
        "name": "ZIMM"
    },
    {
        "key": "NICO",
        "latitude": "35.140981",
        "longitude": "33.396433",
        "name": "NICO"
    },
    {
        "key": "NCKU",
        "latitude": "22.996658",
        "longitude": "120.222583",
        "name": "NCKU"
    },
    {
        "key": "ZIM3",
        "latitude": "46.877092",
        "longitude": "7.465028",
        "name": "ZIM3"
    },
    {
        "key": "NANO",
        "latitude": "49.294800",
        "longitude": "-124.086500",
        "name": "NANO"
    },
    {
        "key": "NTUS",
        "latitude": "1.345800",
        "longitude": "103.679900",
        "name": "NTUS"
    },
    {
        "key": "YKRO",
        "latitude": "6.870560",
        "longitude": "-5.240093",
        "name": "YKRO"
    },
    {
        "key": "OSN4",
        "latitude": "37.082692",
        "longitude": "127.033608",
        "name": "OSN4"
    },
    {
        "key": "OUS2",
        "latitude": "-45.869475",
        "longitude": "170.510933",
        "name": "OUS2"
    },
    {
        "key": "OSN3",
        "latitude": "37.082692",
        "longitude": "127.033608",
        "name": "OSN3"
    },
    {
        "key": "ORID",
        "latitude": "41.127311",
        "longitude": "20.794047",
        "name": "ORID"
    },
    {
        "key": "OPMT",
        "latitude": "48.835881",
        "longitude": "2.334883",
        "name": "OPMT"
    },
    {
        "key": "OWMG",
        "latitude": "-44.024295",
        "longitude": "-176.368803",
        "name": "OWMG"
    },
    {
        "key": "PADO",
        "latitude": "45.411150",
        "longitude": "11.896056",
        "name": "PADO"
    },
    {
        "key": "YELL",
        "latitude": "62.480900",
        "longitude": "-114.480700",
        "name": "YELL"
    },
    {
        "key": "PARK",
        "latitude": "-32.998761",
        "longitude": "148.264614",
        "name": "PARK"
    },
    {
        "key": "RIGA",
        "latitude": "56.948619",
        "longitude": "24.058772",
        "name": "RIGA"
    },
    {
        "key": "PALM",
        "latitude": "-64.775090",
        "longitude": "-64.051122",
        "name": "PALM"
    },
    {
        "key": "OP71",
        "latitude": "48.835906",
        "longitude": "2.334975",
        "name": "OP71"
    },
    {
        "key": "ONSA",
        "latitude": "57.395297",
        "longitude": "11.925514",
        "name": "ONSA"
    },
    {
        "key": "NYAL",
        "latitude": "78.929581",
        "longitude": "11.865094",
        "name": "NYAL"
    },
    {
        "key": "NYA2",
        "latitude": "78.930333",
        "longitude": "11.858639",
        "name": "NYA2"
    },
    {
        "key": "NYA1",
        "latitude": "78.929553",
        "longitude": "11.865294",
        "name": "NYA1"
    },
    {
        "key": "NVSK",
        "latitude": "54.840600",
        "longitude": "83.235500",
        "name": "NVSK"
    },
    {
        "key": "OAK1",
        "latitude": "51.117611",
        "longitude": "-0.905125",
        "name": "OAK1"
    },
    {
        "key": "OAK2",
        "latitude": "51.117611",
        "longitude": "-0.905125",
        "name": "OAK2"
    },
    {
        "key": "ONS1",
        "latitude": "57.395331",
        "longitude": "11.924536",
        "name": "ONS1"
    },
    {
        "key": "OHI3",
        "latitude": "-63.321095",
        "longitude": "-57.901385",
        "name": "OHI3"
    },
    {
        "key": "OHI2",
        "latitude": "-63.321100",
        "longitude": "-57.901300",
        "name": "OHI2"
    },
    {
        "key": "OBE4",
        "latitude": "48.084806",
        "longitude": "11.277856",
        "name": "OBE4"
    },
    {
        "key": "PDEL",
        "latitude": "37.747747",
        "longitude": "-25.662767",
        "name": "PDEL"
    },
    {
        "key": "WIDC",
        "latitude": "33.934758",
        "longitude": "-116.391781",
        "name": "WIDC"
    },
    {
        "key": "TID1",
        "latitude": "-35.399211",
        "longitude": "148.979994",
        "name": "TID1"
    },
    {
        "key": "TIDB",
        "latitude": "-35.399206",
        "longitude": "148.979997",
        "name": "TIDB"
    },
    {
        "key": "THU2",
        "latitude": "76.537000",
        "longitude": "-68.825000",
        "name": "THU2"
    },
    {
        "key": "THTI",
        "latitude": "-17.577058",
        "longitude": "-149.606445",
        "name": "THTI"
    },
    {
        "key": "THTG",
        "latitude": "-17.577060",
        "longitude": "-149.606438",
        "name": "THTG"
    },
    {
        "key": "TIT2",
        "latitude": "51.035233",
        "longitude": "6.431578",
        "name": "TIT2"
    },
    {
        "key": "TIXI",
        "latitude": "71.634475",
        "longitude": "128.866414",
        "name": "TIXI"
    },
    {
        "key": "VALD",
        "latitude": "48.097058",
        "longitude": "-77.564167",
        "name": "VALD"
    },
    {
        "key": "VILL",
        "latitude": "40.443592",
        "longitude": "-3.951981",
        "name": "VILL"
    },
    {
        "key": "TLSG",
        "latitude": "43.549712",
        "longitude": "1.485042",
        "name": "TLSG"
    },
    {
        "key": "TLSE",
        "latitude": "43.560694",
        "longitude": "1.480872",
        "name": "TLSE"
    },
    {
        "key": "TEHN",
        "latitude": "35.697281",
        "longitude": "51.334092",
        "name": "TEHN"
    },
    {
        "key": "TDOU",
        "latitude": "-23.079908",
        "longitude": "30.384006",
        "name": "TDOU"
    },
    {
        "key": "SVTL",
        "latitude": "60.532856",
        "longitude": "29.780872",
        "name": "SVTL"
    },
    {
        "key": "SYDN",
        "latitude": "-33.780885",
        "longitude": "151.150377",
        "name": "SYDN"
    },
    {
        "key": "SUWN",
        "latitude": "37.275500",
        "longitude": "127.054200",
        "name": "SUWN"
    },
    {
        "key": "SUTM",
        "latitude": "-32.381436",
        "longitude": "20.810911",
        "name": "SUTM"
    },
    {
        "key": "SUTH",
        "latitude": "-32.380211",
        "longitude": "20.810462",
        "name": "SUTH"
    },
    {
        "key": "SYOG",
        "latitude": "-69.007000",
        "longitude": "39.583700",
        "name": "SYOG"
    },
    {
        "key": "TABL",
        "latitude": "34.381850",
        "longitude": "-117.678283",
        "name": "TABL"
    },
    {
        "key": "VIS0",
        "latitude": "57.653867",
        "longitude": "18.367311",
        "name": "VIS0"
    },
    {
        "key": "TCMS",
        "latitude": "24.797986",
        "longitude": "120.987389",
        "name": "TCMS"
    },
    {
        "key": "TASH",
        "latitude": "41.328050",
        "longitude": "69.295567",
        "name": "TASH"
    },
    {
        "key": "VNDP",
        "latitude": "34.556311",
        "longitude": "-120.616450",
        "name": "VNDP"
    },
    {
        "key": "VACS",
        "latitude": "-20.297091",
        "longitude": "57.497037",
        "name": "VACS"
    },
    {
        "key": "TOPL",
        "latitude": "-10.171053",
        "longitude": "-48.330678",
        "name": "TOPL"
    },
    {
        "key": "UNBD",
        "latitude": "45.950123",
        "longitude": "-66.641495",
        "name": "UNBD"
    },
    {
        "key": "UNBJ",
        "latitude": "45.950208",
        "longitude": "-66.641706",
        "name": "UNBJ"
    },
    {
        "key": "UNB3",
        "latitude": "45.950208",
        "longitude": "-66.641706",
        "name": "UNB3"
    },
    {
        "key": "ULDI",
        "latitude": "-28.293117",
        "longitude": "31.420922",
        "name": "ULDI"
    },
    {
        "key": "ULAB",
        "latitude": "47.865067",
        "longitude": "107.052331",
        "name": "ULAB"
    },
    {
        "key": "UNBN",
        "latitude": "45.950208",
        "longitude": "-66.641706",
        "name": "UNBN"
    },
    {
        "key": "UNSA",
        "latitude": "-24.727456",
        "longitude": "-65.407644",
        "name": "UNSA"
    },
    {
        "key": "URUM",
        "latitude": "43.807950",
        "longitude": "87.600672",
        "name": "URUM"
    },
    {
        "key": "URAL",
        "latitude": "56.838275",
        "longitude": "60.614858",
        "name": "URAL"
    },
    {
        "key": "USN8",
        "latitude": "38.920566",
        "longitude": "-77.066277",
        "name": "USN8"
    },
    {
        "key": "USN9",
        "latitude": "38.920566",
        "longitude": "-77.066277",
        "name": "USN9"
    },
    {
        "key": "UFPR",
        "latitude": "-25.448369",
        "longitude": "-49.230956",
        "name": "UFPR"
    },
    {
        "key": "UCLU",
        "latitude": "48.925600",
        "longitude": "-125.541600",
        "name": "UCLU"
    },
    {
        "key": "TRO1",
        "latitude": "69.662714",
        "longitude": "18.939631",
        "name": "TRO1"
    },
    {
        "key": "TSK2",
        "latitude": "36.105575",
        "longitude": "140.087117",
        "name": "TSK2"
    },
    {
        "key": "TRAK",
        "latitude": "33.617936",
        "longitude": "-117.803439",
        "name": "TRAK"
    },
    {
        "key": "TOW2",
        "latitude": "-19.269286",
        "longitude": "147.055686",
        "name": "TOW2"
    },
    {
        "key": "TORP",
        "latitude": "33.797797",
        "longitude": "-118.330603",
        "name": "TORP"
    },
    {
        "key": "TSKB",
        "latitude": "36.105681",
        "longitude": "140.087497",
        "name": "TSKB"
    },
    {
        "key": "TUBI",
        "latitude": "40.786728",
        "longitude": "29.450675",
        "name": "TUBI"
    },
    {
        "key": "USUD",
        "latitude": "36.133110",
        "longitude": "138.362044",
        "name": "USUD"
    },
    {
        "key": "UCAL",
        "latitude": "51.079975",
        "longitude": "-114.133850",
        "name": "UCAL"
    },
    {
        "key": "TWTF",
        "latitude": "24.953600",
        "longitude": "121.164500",
        "name": "TWTF"
    },
    {
        "key": "UTQI",
        "latitude": "71.322756",
        "longitude": "-156.615017",
        "name": "UTQI"
    },
    {
        "key": "VOIM",
        "latitude": "-21.906300",
        "longitude": "46.793272",
        "name": "VOIM"
    },
    {
        "key": "SULP",
        "latitude": "49.835589",
        "longitude": "24.014489",
        "name": "SULP"
    },
    {
        "key": "SCRZ",
        "latitude": "-17.796792",
        "longitude": "-63.159678",
        "name": "SCRZ"
    },
    {
        "key": "SCTB",
        "latitude": "-77.848986",
        "longitude": "166.758014",
        "name": "SCTB"
    },
    {
        "key": "SCOR",
        "latitude": "70.485333",
        "longitude": "-21.950336",
        "name": "SCOR"
    },
    {
        "key": "WGTN",
        "latitude": "-41.323456",
        "longitude": "174.805893",
        "name": "WGTN"
    },
    {
        "key": "SCH2",
        "latitude": "54.832100",
        "longitude": "-66.832600",
        "name": "SCH2"
    },
    {
        "key": "SCUB",
        "latitude": "20.012067",
        "longitude": "-75.762314",
        "name": "SCUB"
    },
    {
        "key": "SEJN",
        "latitude": "36.522211",
        "longitude": "127.303192",
        "name": "SEJN"
    },
    {
        "key": "WDC6",
        "latitude": "38.920564",
        "longitude": "-77.066317",
        "name": "WDC6"
    },
    {
        "key": "SEYG",
        "latitude": "-4.678732",
        "longitude": "55.530631",
        "name": "SEYG"
    },
    {
        "key": "SEY2",
        "latitude": "-4.673651",
        "longitude": "55.479454",
        "name": "SEY2"
    },
    {
        "key": "SEME",
        "latitude": "50.432694",
        "longitude": "80.265908",
        "name": "SEME"
    },
    {
        "key": "SBOK",
        "latitude": "-29.669322",
        "longitude": "17.879208",
        "name": "SBOK"
    },
    {
        "key": "SAVO",
        "latitude": "-12.939247",
        "longitude": "-38.432253",
        "name": "SAVO"
    },
    {
        "key": "ROAG",
        "latitude": "36.463350",
        "longitude": "-6.206275",
        "name": "ROAG"
    },
    {
        "key": "ROCK",
        "latitude": "34.235675",
        "longitude": "-118.676431",
        "name": "ROCK"
    },
    {
        "key": "USN7",
        "latitude": "38.920566",
        "longitude": "-77.066277",
        "name": "USN7"
    },
    {
        "key": "WILL",
        "latitude": "52.236900",
        "longitude": "-122.167800",
        "name": "WILL"
    },
    {
        "key": "RIOP",
        "latitude": "-1.650600",
        "longitude": "-78.651100",
        "name": "RIOP"
    },
    {
        "key": "ROTH",
        "latitude": "-67.571402",
        "longitude": "-68.125746",
        "name": "ROTH"
    },
    {
        "key": "SALU",
        "latitude": "-2.593458",
        "longitude": "-44.212478",
        "name": "SALU"
    },
    {
        "key": "SASK",
        "latitude": "52.196256",
        "longitude": "-106.398353",
        "name": "SASK"
    },
    {
        "key": "SANT",
        "latitude": "-33.150288",
        "longitude": "-70.668553",
        "name": "SANT"
    },
    {
        "key": "WHC1",
        "latitude": "33.979886",
        "longitude": "-118.031169",
        "name": "WHC1"
    },
    {
        "key": "WHIT",
        "latitude": "60.750500",
        "longitude": "-135.222100",
        "name": "WHIT"
    },
    {
        "key": "SFDM",
        "latitude": "34.459806",
        "longitude": "-118.754506",
        "name": "SFDM"
    },
    {
        "key": "SFER",
        "latitude": "36.464344",
        "longitude": "-6.205647",
        "name": "SFER"
    },
    {
        "key": "STJ3",
        "latitude": "47.595435",
        "longitude": "-52.678308",
        "name": "STJ3"
    },
    {
        "key": "STJO",
        "latitude": "47.595239",
        "longitude": "-52.677747",
        "name": "STJO"
    },
    {
        "key": "STHL",
        "latitude": "-15.942534",
        "longitude": "-5.667345",
        "name": "STHL"
    },
    {
        "key": "STFU",
        "latitude": "37.426907",
        "longitude": "-122.173291",
        "name": "STFU"
    },
    {
        "key": "SSIA",
        "latitude": "13.697300",
        "longitude": "-89.116200",
        "name": "SSIA"
    },
    {
        "key": "STK2",
        "latitude": "43.528644",
        "longitude": "141.844819",
        "name": "STK2"
    },
    {
        "key": "STPM",
        "latitude": "46.777824",
        "longitude": "-56.168244",
        "name": "STPM"
    },
    {
        "key": "WAB2",
        "latitude": "46.923750",
        "longitude": "7.464256",
        "name": "WAB2"
    },
    {
        "key": "STR2",
        "latitude": "-35.316167",
        "longitude": "149.010153",
        "name": "STR2"
    },
    {
        "key": "STR1",
        "latitude": "-35.315539",
        "longitude": "149.010883",
        "name": "STR1"
    },
    {
        "key": "WARK",
        "latitude": "-36.434411",
        "longitude": "174.662781",
        "name": "WARK"
    },
    {
        "key": "SPTU",
        "latitude": "-21.929117",
        "longitude": "-50.492369",
        "name": "SPTU"
    },
    {
        "key": "SPT0",
        "latitude": "57.714956",
        "longitude": "12.891344",
        "name": "SPT0"
    },
    {
        "key": "SHE2",
        "latitude": "46.220691",
        "longitude": "-64.552010",
        "name": "SHE2"
    },
    {
        "key": "SIN1",
        "latitude": "1.342981",
        "longitude": "103.679438",
        "name": "SIN1"
    },
    {
        "key": "MRC1",
        "latitude": "38.499100",
        "longitude": "-77.370650",
        "name": "MRC1"
    },
    {
        "key": "SGPO",
        "latitude": "36.604183",
        "longitude": "-97.484822",
        "name": "SGPO"
    },
    {
        "key": "SGOC",
        "latitude": "6.892075",
        "longitude": "79.874178",
        "name": "SGOC"
    },
    {
        "key": "SMST",
        "latitude": "33.577855",
        "longitude": "135.936955",
        "name": "SMST"
    },
    {
        "key": "WDC5",
        "latitude": "38.920564",
        "longitude": "-77.066317",
        "name": "WDC5"
    },
    {
        "key": "WARN",
        "latitude": "54.169786",
        "longitude": "12.101425",
        "name": "WARN"
    },
    {
        "key": "SOLO",
        "latitude": "-9.434922",
        "longitude": "159.954344",
        "name": "SOLO"
    },
    {
        "key": "SOFI",
        "latitude": "42.556100",
        "longitude": "23.394700",
        "name": "SOFI"
    },
    {
        "key": "SOD3",
        "latitude": "67.420786",
        "longitude": "26.389286",
        "name": "SOD3"
    },
    {
        "key": "RIO2",
        "latitude": "-53.785472",
        "longitude": "-67.751119",
        "name": "RIO2"
    },
    {
        "key": "MELI",
        "latitude": "35.281219",
        "longitude": "-2.951642",
        "name": "MELI"
    },
    {
        "key": "CUSV",
        "latitude": "13.735914",
        "longitude": "100.533908",
        "name": "CUSV"
    },
    {
        "key": "CUT0",
        "latitude": "-32.003889",
        "longitude": "115.894800",
        "name": "CUT0"
    },
    {
        "key": "CRO1",
        "latitude": "17.756899",
        "longitude": "-64.584319",
        "name": "CRO1"
    },
    {
        "key": "CRFP",
        "latitude": "34.039053",
        "longitude": "-117.099683",
        "name": "CRFP"
    },
    {
        "key": "CPNM",
        "latitude": "10.724650",
        "longitude": "99.374378",
        "name": "CPNM"
    },
    {
        "key": "CPVG",
        "latitude": "16.732062",
        "longitude": "-22.934933",
        "name": "CPVG"
    },
    {
        "key": "CZTG",
        "latitude": "-46.431894",
        "longitude": "51.855481",
        "name": "CZTG"
    },
    {
        "key": "DAE2",
        "latitude": "36.399425",
        "longitude": "127.374481",
        "name": "DAE2"
    },
    {
        "key": "DAV1",
        "latitude": "-68.577300",
        "longitude": "77.972600",
        "name": "DAV1"
    },
    {
        "key": "DEAR",
        "latitude": "-30.665206",
        "longitude": "23.992639",
        "name": "DEAR"
    },
    {
        "key": "DARW",
        "latitude": "-12.843711",
        "longitude": "131.132736",
        "name": "DARW"
    },
    {
        "key": "DAKR",
        "latitude": "14.721222",
        "longitude": "-17.439472",
        "name": "DAKR"
    },
    {
        "key": "DAEJ",
        "latitude": "36.399400",
        "longitude": "127.374500",
        "name": "DAEJ"
    },
    {
        "key": "COTE",
        "latitude": "-77.805900",
        "longitude": "161.997800",
        "name": "COTE"
    },
    {
        "key": "COSO",
        "latitude": "35.982344",
        "longitude": "-117.808889",
        "name": "COSO"
    },
    {
        "key": "CHWK",
        "latitude": "49.156600",
        "longitude": "-122.008400",
        "name": "CHWK"
    },
    {
        "key": "CIBG",
        "latitude": "-6.490365",
        "longitude": "106.849173",
        "name": "CIBG"
    },
    {
        "key": "CHUR",
        "latitude": "58.759100",
        "longitude": "-94.088700",
        "name": "CHUR"
    },
    {
        "key": "CHUM",
        "latitude": "42.998501",
        "longitude": "74.751099",
        "name": "CHUM"
    },
    {
        "key": "CHPI",
        "latitude": "-22.687144",
        "longitude": "-44.985158",
        "name": "CHPI"
    },
    {
        "key": "CHTI",
        "latitude": "-43.735475",
        "longitude": "-176.617114",
        "name": "CHTI"
    },
    {
        "key": "CIT1",
        "latitude": "34.136708",
        "longitude": "-118.127286",
        "name": "CIT1"
    },
    {
        "key": "CKIS",
        "latitude": "-21.200936",
        "longitude": "-159.800617",
        "name": "CKIS"
    },
    {
        "key": "COCO",
        "latitude": "-12.188300",
        "longitude": "96.833900",
        "name": "COCO"
    },
    {
        "key": "CORD",
        "latitude": "-31.528436",
        "longitude": "-64.470048",
        "name": "CORD"
    },
    {
        "key": "CNMR",
        "latitude": "15.229697",
        "longitude": "145.743092",
        "name": "CNMR"
    },
    {
        "key": "CMP9",
        "latitude": "34.353181",
        "longitude": "-118.411425",
        "name": "CMP9"
    },
    {
        "key": "CKSV",
        "latitude": "22.998853",
        "longitude": "120.220008",
        "name": "CKSV"
    },
    {
        "key": "DGAR",
        "latitude": "-7.269684",
        "longitude": "72.370240",
        "name": "DGAR"
    },
    {
        "key": "DHLG",
        "latitude": "33.389806",
        "longitude": "-115.788028",
        "name": "DHLG"
    },
    {
        "key": "FRDN",
        "latitude": "45.933000",
        "longitude": "-66.659000",
        "name": "FRDN"
    },
    {
        "key": "FTNA",
        "latitude": "-14.307803",
        "longitude": "-178.120946",
        "name": "FTNA"
    },
    {
        "key": "FLRS",
        "latitude": "39.453833",
        "longitude": "-31.126389",
        "name": "FLRS"
    },
    {
        "key": "FLIN",
        "latitude": "54.725600",
        "longitude": "-101.978000",
        "name": "FLIN"
    },
    {
        "key": "FALK",
        "latitude": "-51.693652",
        "longitude": "-57.874067",
        "name": "FALK"
    },
    {
        "key": "FFMJ",
        "latitude": "50.090578",
        "longitude": "8.664964",
        "name": "FFMJ"
    },
    {
        "key": "FUNC",
        "latitude": "32.647947",
        "longitude": "-16.907617",
        "name": "FUNC"
    },
    {
        "key": "GAMB",
        "latitude": "-23.130355",
        "longitude": "-134.964824",
        "name": "GAMB"
    },
    {
        "key": "GENO",
        "latitude": "44.419400",
        "longitude": "8.921117",
        "name": "GENO"
    },
    {
        "key": "GLPS",
        "latitude": "-0.742999",
        "longitude": "-90.303669",
        "name": "GLPS"
    },
    {
        "key": "GCGO",
        "latitude": "65.639050",
        "longitude": "-147.842865",
        "name": "GCGO"
    },
    {
        "key": "GANP",
        "latitude": "49.034714",
        "longitude": "20.322936",
        "name": "GANP"
    },
    {
        "key": "GAMG",
        "latitude": "35.590071",
        "longitude": "127.919660",
        "name": "GAMG"
    },
    {
        "key": "FAIR",
        "latitude": "64.977998",
        "longitude": "-147.499240",
        "name": "FAIR"
    },
    {
        "key": "FAA1",
        "latitude": "-17.555314",
        "longitude": "-149.614300",
        "name": "FAA1"
    },
    {
        "key": "DUBO",
        "latitude": "50.258800",
        "longitude": "-95.866200",
        "name": "DUBO"
    },
    {
        "key": "DUMG",
        "latitude": "-66.665169",
        "longitude": "140.002200",
        "name": "DUMG"
    },
    {
        "key": "DRAO",
        "latitude": "49.322600",
        "longitude": "-119.625000",
        "name": "DRAO"
    },
    {
        "key": "DRAG",
        "latitude": "31.593200",
        "longitude": "35.392069",
        "name": "DRAG"
    },
    {
        "key": "DJIG",
        "latitude": "11.526288",
        "longitude": "42.847064",
        "name": "DJIG"
    },
    {
        "key": "DLF1",
        "latitude": "51.986019",
        "longitude": "4.387458",
        "name": "DLF1"
    },
    {
        "key": "DUND",
        "latitude": "-45.883675",
        "longitude": "170.597175",
        "name": "DUND"
    },
    {
        "key": "DYNG",
        "latitude": "38.078553",
        "longitude": "23.932433",
        "name": "DYNG"
    },
    {
        "key": "ENAO",
        "latitude": "39.091200",
        "longitude": "-28.026011",
        "name": "ENAO"
    },
    {
        "key": "ESCU",
        "latitude": "47.073404",
        "longitude": "-64.798710",
        "name": "ESCU"
    },
    {
        "key": "EIL4",
        "latitude": "64.687889",
        "longitude": "-147.113014",
        "name": "EIL4"
    },
    {
        "key": "EIL3",
        "latitude": "64.687889",
        "longitude": "-147.113014",
        "name": "EIL3"
    },
    {
        "key": "EBRE",
        "latitude": "40.820886",
        "longitude": "0.492350",
        "name": "EBRE"
    },
    {
        "key": "CHPG",
        "latitude": "-22.682273",
        "longitude": "-45.002376",
        "name": "CHPG"
    },
    {
        "key": "CHOF",
        "latitude": "35.674544",
        "longitude": "139.531057",
        "name": "CHOF"
    },
    {
        "key": "ASPA",
        "latitude": "-14.326094",
        "longitude": "-170.722433",
        "name": "ASPA"
    },
    {
        "key": "ATRU",
        "latitude": "47.130881",
        "longitude": "51.953767",
        "name": "ATRU"
    },
    {
        "key": "ASCG",
        "latitude": "-7.916281",
        "longitude": "-14.332664",
        "name": "ASCG"
    },
    {
        "key": "ARUC",
        "latitude": "40.285722",
        "longitude": "44.085583",
        "name": "ARUC"
    },
    {
        "key": "ARHT",
        "latitude": "-77.829436",
        "longitude": "166.663653",
        "name": "ARHT"
    },
    {
        "key": "ARTU",
        "latitude": "56.429822",
        "longitude": "58.560453",
        "name": "ARTU"
    },
    {
        "key": "AUCK",
        "latitude": "-36.602800",
        "longitude": "174.834400",
        "name": "AUCK"
    },
    {
        "key": "BADG",
        "latitude": "51.769706",
        "longitude": "102.234981",
        "name": "BADG"
    },
    {
        "key": "BAMF",
        "latitude": "48.835317",
        "longitude": "-125.135089",
        "name": "BAMF"
    },
    {
        "key": "BARH",
        "latitude": "44.395047",
        "longitude": "-68.221692",
        "name": "BARH"
    },
    {
        "key": "BAKO",
        "latitude": "-6.490000",
        "longitude": "106.850000",
        "name": "BAKO"
    },
    {
        "key": "BAKE",
        "latitude": "64.317819",
        "longitude": "-96.002344",
        "name": "BAKE"
    },
    {
        "key": "BAIE",
        "latitude": "49.186825",
        "longitude": "-68.263328",
        "name": "BAIE"
    },
    {
        "key": "AREQ",
        "latitude": "-16.465517",
        "longitude": "-71.492797",
        "name": "AREQ"
    },
    {
        "key": "AREG",
        "latitude": "-16.465423",
        "longitude": "-71.492904",
        "name": "AREG"
    },
    {
        "key": "AIRA",
        "latitude": "31.824061",
        "longitude": "130.599592",
        "name": "AIRA"
    },
    {
        "key": "AJAC",
        "latitude": "41.927450",
        "longitude": "8.762608",
        "name": "AJAC"
    },
    {
        "key": "AGGO",
        "latitude": "-34.873708",
        "longitude": "-58.139861",
        "name": "AGGO"
    },
    {
        "key": "ADIS",
        "latitude": "9.035134",
        "longitude": "38.766302",
        "name": "ADIS"
    },
    {
        "key": "ABPO",
        "latitude": "-19.018306",
        "longitude": "47.229212",
        "name": "ABPO"
    },
    {
        "key": "ACRG",
        "latitude": "5.641478",
        "longitude": "-0.207111",
        "name": "ACRG"
    },
    {
        "key": "ALBH",
        "latitude": "48.389800",
        "longitude": "-123.487400",
        "name": "ALBH"
    },
    {
        "key": "ALGO",
        "latitude": "45.958800",
        "longitude": "-78.071400",
        "name": "ALGO"
    },
    {
        "key": "ANMG",
        "latitude": "2.784648",
        "longitude": "101.506602",
        "name": "ANMG"
    },
    {
        "key": "ANTC",
        "latitude": "-37.338703",
        "longitude": "-71.532050",
        "name": "ANTC"
    },
    {
        "key": "ANKR",
        "latitude": "39.887511",
        "longitude": "32.758578",
        "name": "ANKR"
    },
    {
        "key": "AMC4",
        "latitude": "38.803125",
        "longitude": "-104.524597",
        "name": "AMC4"
    },
    {
        "key": "ALIC",
        "latitude": "-23.670125",
        "longitude": "133.885514",
        "name": "ALIC"
    },
    {
        "key": "BELE",
        "latitude": "-1.408794",
        "longitude": "-48.462547",
        "name": "BELE"
    },
    {
        "key": "BHR3",
        "latitude": "26.209142",
        "longitude": "50.608144",
        "name": "BHR3"
    },
    {
        "key": "BUCU",
        "latitude": "44.463944",
        "longitude": "26.125739",
        "name": "BUCU"
    },
    {
        "key": "BZRG",
        "latitude": "46.499019",
        "longitude": "11.336792",
        "name": "BZRG"
    },
    {
        "key": "BSHM",
        "latitude": "32.779000",
        "longitude": "35.020000",
        "name": "BSHM"
    },
    {
        "key": "BRUX",
        "latitude": "50.798064",
        "longitude": "4.358564",
        "name": "BRUX"
    },
    {
        "key": "BRMU",
        "latitude": "32.370400",
        "longitude": "-64.696272",
        "name": "BRMU"
    },
    {
        "key": "BRST",
        "latitude": "48.380497",
        "longitude": "-4.496600",
        "name": "BRST"
    },
    {
        "key": "CAGS",
        "latitude": "45.585000",
        "longitude": "-75.807300",
        "name": "CAGS"
    },
    {
        "key": "CAS1",
        "latitude": "-66.283400",
        "longitude": "110.519700",
        "name": "CAS1"
    },
    {
        "key": "CHAN",
        "latitude": "43.790500",
        "longitude": "125.443300",
        "name": "CHAN"
    },
    {
        "key": "CHIL",
        "latitude": "34.333422",
        "longitude": "-118.025997",
        "name": "CHIL"
    },
    {
        "key": "CEDU",
        "latitude": "-31.866672",
        "longitude": "133.809828",
        "name": "CEDU"
    },
    {
        "key": "CEBR",
        "latitude": "40.453431",
        "longitude": "-4.367853",
        "name": "CEBR"
    },
    {
        "key": "CCJ2",
        "latitude": "27.067531",
        "longitude": "142.195028",
        "name": "CCJ2"
    },
    {
        "key": "BRFT",
        "latitude": "-3.877447",
        "longitude": "-38.425536",
        "name": "BRFT"
    },
    {
        "key": "BREW",
        "latitude": "48.131524",
        "longitude": "-119.682634",
        "name": "BREW"
    },
    {
        "key": "BJFS",
        "latitude": "39.608625",
        "longitude": "115.892461",
        "name": "BJFS"
    },
    {
        "key": "BJNM",
        "latitude": "40.245325",
        "longitude": "116.224128",
        "name": "BJNM"
    },
    {
        "key": "BILL",
        "latitude": "33.578242",
        "longitude": "-117.064600",
        "name": "BILL"
    },
    {
        "key": "BIK0",
        "latitude": "42.854194",
        "longitude": "74.533194",
        "name": "BIK0"
    },
    {
        "key": "BHR4",
        "latitude": "26.209142",
        "longitude": "50.608144",
        "name": "BHR4"
    },
    {
        "key": "BLYT",
        "latitude": "33.610414",
        "longitude": "-114.714850",
        "name": "BLYT"
    },
    {
        "key": "BNOA",
        "latitude": "-8.746500",
        "longitude": "115.209917",
        "name": "BNOA"
    },
    {
        "key": "BOR1",
        "latitude": "52.276956",
        "longitude": "17.073458",
        "name": "BOR1"
    },
    {
        "key": "BRAZ",
        "latitude": "-15.947400",
        "longitude": "-47.877800",
        "name": "BRAZ"
    },
    {
        "key": "BOGT",
        "latitude": "4.640073",
        "longitude": "-74.080940",
        "name": "BOGT"
    },
    {
        "key": "BOGI",
        "latitude": "52.474989",
        "longitude": "21.035211",
        "name": "BOGI"
    },
    {
        "key": "BOAV",
        "latitude": "2.845181",
        "longitude": "-60.701114",
        "name": "BOAV"
    },
    {
        "key": "GLSV",
        "latitude": "50.364178",
        "longitude": "30.496739",
        "name": "GLSV"
    },
    {
        "key": "GMSD",
        "latitude": "30.556446",
        "longitude": "131.015564",
        "name": "GMSD"
    },
    {
        "key": "LROC",
        "latitude": "46.158939",
        "longitude": "-1.219319",
        "name": "LROC"
    },
    {
        "key": "M0SE",
        "latitude": "41.893114",
        "longitude": "12.493258",
        "name": "M0SE"
    },
    {
        "key": "LPGS",
        "latitude": "-34.906744",
        "longitude": "-57.932300",
        "name": "LPGS"
    },
    {
        "key": "LPAL",
        "latitude": "28.763958",
        "longitude": "-17.893839",
        "name": "LPAL"
    },
    {
        "key": "LLAG",
        "latitude": "28.481666",
        "longitude": "-16.320718",
        "name": "LLAG"
    },
    {
        "key": "LMMF",
        "latitude": "14.594817",
        "longitude": "-60.996169",
        "name": "LMMF"
    },
    {
        "key": "MAC1",
        "latitude": "-54.499500",
        "longitude": "158.935800",
        "name": "MAC1"
    },
    {
        "key": "MAD2",
        "latitude": "40.429161",
        "longitude": "-4.249658",
        "name": "MAD2"
    },
    {
        "key": "MAL2",
        "latitude": "-2.996000",
        "longitude": "40.194000",
        "name": "MAL2"
    },
    {
        "key": "MAR6",
        "latitude": "60.595142",
        "longitude": "17.258522",
        "name": "MAR6"
    },
    {
        "key": "MAJU",
        "latitude": "7.119137",
        "longitude": "171.364525",
        "name": "MAJU"
    },
    {
        "key": "MAG0",
        "latitude": "59.575800",
        "longitude": "150.770000",
        "name": "MAG0"
    },
    {
        "key": "MADR",
        "latitude": "40.429161",
        "longitude": "-4.249658",
        "name": "MADR"
    },
    {
        "key": "LHAZ",
        "latitude": "29.657331",
        "longitude": "91.104022",
        "name": "LHAZ"
    },
    {
        "key": "LEIJ",
        "latitude": "51.353981",
        "longitude": "12.374097",
        "name": "LEIJ"
    },
    {
        "key": "KOUG",
        "latitude": "5.098471",
        "longitude": "-52.639750",
        "name": "KOUG"
    },
    {
        "key": "KOUR",
        "latitude": "5.252200",
        "longitude": "-52.806000",
        "name": "KOUR"
    },
    {
        "key": "KOUC",
        "latitude": "-20.558697",
        "longitude": "164.287333",
        "name": "KOUC"
    },
    {
        "key": "KOST",
        "latitude": "53.224558",
        "longitude": "63.608103",
        "name": "KOST"
    },
    {
        "key": "KOKV",
        "latitude": "22.126264",
        "longitude": "-159.664930",
        "name": "KOKV"
    },
    {
        "key": "KOS1",
        "latitude": "52.173356",
        "longitude": "5.818225",
        "name": "KOS1"
    },
    {
        "key": "KRGG",
        "latitude": "-49.351543",
        "longitude": "70.255506",
        "name": "KRGG"
    },
    {
        "key": "KRS1",
        "latitude": "40.588453",
        "longitude": "43.093444",
        "name": "KRS1"
    },
    {
        "key": "LBCH",
        "latitude": "33.787769",
        "longitude": "-118.203344",
        "name": "LBCH"
    },
    {
        "key": "LCK4",
        "latitude": "26.912143",
        "longitude": "80.955617",
        "name": "LCK4"
    },
    {
        "key": "LAUT",
        "latitude": "-17.608806",
        "longitude": "177.446583",
        "name": "LAUT"
    },
    {
        "key": "LAMA",
        "latitude": "53.892400",
        "longitude": "20.669933",
        "name": "LAMA"
    },
    {
        "key": "KUJ2",
        "latitude": "55.290008",
        "longitude": "-77.735272",
        "name": "KUJ2"
    },
    {
        "key": "MAR7",
        "latitude": "60.595053",
        "longitude": "17.258439",
        "name": "MAR7"
    },
    {
        "key": "MARS",
        "latitude": "43.278769",
        "longitude": "5.353783",
        "name": "MARS"
    },
    {
        "key": "MIKL",
        "latitude": "46.972789",
        "longitude": "31.972828",
        "name": "MIKL"
    },
    {
        "key": "MIZU",
        "latitude": "39.135169",
        "longitude": "141.132828",
        "name": "MIZU"
    },
    {
        "key": "MGUE",
        "latitude": "-35.777350",
        "longitude": "-69.397928",
        "name": "MGUE"
    },
    {
        "key": "METS",
        "latitude": "60.217469",
        "longitude": "24.395317",
        "name": "METS"
    },
    {
        "key": "MET3",
        "latitude": "60.217456",
        "longitude": "24.394500",
        "name": "MET3"
    },
    {
        "key": "METG",
        "latitude": "60.241967",
        "longitude": "24.384175",
        "name": "METG"
    },
    {
        "key": "MKEA",
        "latitude": "19.801357",
        "longitude": "-155.456345",
        "name": "MKEA"
    },
    {
        "key": "MOBJ",
        "latitude": "55.114882",
        "longitude": "36.569713",
        "name": "MOBJ"
    },
    {
        "key": "MONP",
        "latitude": "32.890000",
        "longitude": "-116.420000",
        "name": "MONP"
    },
    {
        "key": "MORP",
        "latitude": "55.212789",
        "longitude": "-1.685497",
        "name": "MORP"
    },
    {
        "key": "MOBS",
        "latitude": "-37.829405",
        "longitude": "144.975340",
        "name": "MOBS"
    },
    {
        "key": "MOBN",
        "latitude": "55.114881",
        "longitude": "36.569519",
        "name": "MOBN"
    },
    {
        "key": "MOBK",
        "latitude": "55.114882",
        "longitude": "36.569713",
        "name": "MOBK"
    },
    {
        "key": "MERS",
        "latitude": "36.566389",
        "longitude": "34.255853",
        "name": "MERS"
    },
    {
        "key": "ABMF",
        "latitude": "16.262306",
        "longitude": "-61.527531",
        "name": "ABMF"
    },
    {
        "key": "MATG",
        "latitude": "40.649028",
        "longitude": "16.704653",
        "name": "MATG"
    },
    {
        "key": "MAUI",
        "latitude": "20.706700",
        "longitude": "-156.257000",
        "name": "MAUI"
    },
    {
        "key": "MATE",
        "latitude": "40.649131",
        "longitude": "16.704458",
        "name": "MATE"
    },
    {
        "key": "MAT1",
        "latitude": "40.649061",
        "longitude": "16.704544",
        "name": "MAT1"
    },
    {
        "key": "MAS1",
        "latitude": "27.763739",
        "longitude": "-15.633278",
        "name": "MAS1"
    },
    {
        "key": "MAW1",
        "latitude": "-67.604800",
        "longitude": "62.870700",
        "name": "MAW1"
    },
    {
        "key": "MAYG",
        "latitude": "-12.782053",
        "longitude": "45.258152",
        "name": "MAYG"
    },
    {
        "key": "MDVJ",
        "latitude": "56.021492",
        "longitude": "37.214503",
        "name": "MDVJ"
    },
    {
        "key": "MEDI",
        "latitude": "44.519956",
        "longitude": "11.646814",
        "name": "MEDI"
    },
    {
        "key": "MDO1",
        "latitude": "30.680511",
        "longitude": "-104.014993",
        "name": "MDO1"
    },
    {
        "key": "MCM4",
        "latitude": "-77.838349",
        "longitude": "166.669329",
        "name": "MCM4"
    },
    {
        "key": "MCHL",
        "latitude": "-26.358906",
        "longitude": "148.144961",
        "name": "MCHL"
    },
    {
        "key": "KOKB",
        "latitude": "22.126264",
        "longitude": "-159.664930",
        "name": "KOKB"
    },
    {
        "key": "KMNM",
        "latitude": "24.463822",
        "longitude": "118.388578",
        "name": "KMNM"
    },
    {
        "key": "HKSL",
        "latitude": "22.372005",
        "longitude": "113.927981",
        "name": "HKSL"
    },
    {
        "key": "HKWS",
        "latitude": "22.434282",
        "longitude": "114.335377",
        "name": "HKWS"
    },
    {
        "key": "HERT",
        "latitude": "50.867478",
        "longitude": "0.334353",
        "name": "HERT"
    },
    {
        "key": "HERS",
        "latitude": "50.867300",
        "longitude": "0.336200",
        "name": "HERS"
    },
    {
        "key": "HAMD",
        "latitude": "34.869083",
        "longitude": "48.534306",
        "name": "HAMD"
    },
    {
        "key": "HARB",
        "latitude": "-25.886962",
        "longitude": "27.707246",
        "name": "HARB"
    },
    {
        "key": "HLFX",
        "latitude": "44.683550",
        "longitude": "-63.611278",
        "name": "HLFX"
    },
    {
        "key": "HNUS",
        "latitude": "-34.424631",
        "longitude": "19.223061",
        "name": "HNUS"
    },
    {
        "key": "HRAG",
        "latitude": "-25.890402",
        "longitude": "27.685180",
        "name": "HRAG"
    },
    {
        "key": "HRAO",
        "latitude": "-25.890106",
        "longitude": "27.686981",
        "name": "HRAO"
    },
    {
        "key": "HOLB",
        "latitude": "50.640400",
        "longitude": "-128.135000",
        "name": "HOLB"
    },
    {
        "key": "HOFN",
        "latitude": "64.267292",
        "longitude": "-15.197925",
        "name": "HOFN"
    },
    {
        "key": "HOB2",
        "latitude": "-42.804719",
        "longitude": "147.438733",
        "name": "HOB2"
    },
    {
        "key": "HAL1",
        "latitude": "20.707506",
        "longitude": "-156.256194",
        "name": "HAL1"
    },
    {
        "key": "GUUG",
        "latitude": "13.433208",
        "longitude": "144.802714",
        "name": "GUUG"
    },
    {
        "key": "GOL2",
        "latitude": "35.425156",
        "longitude": "-116.889250",
        "name": "GOL2"
    },
    {
        "key": "GOLD",
        "latitude": "35.425156",
        "longitude": "-116.889250",
        "name": "GOLD"
    },
    {
        "key": "GODZ",
        "latitude": "39.021728",
        "longitude": "-76.826828",
        "name": "GODZ"
    },
    {
        "key": "GODS",
        "latitude": "39.034778",
        "longitude": "-77.386972",
        "name": "GODS"
    },
    {
        "key": "GODE",
        "latitude": "39.021728",
        "longitude": "-76.826830",
        "name": "GODE"
    },
    {
        "key": "GODN",
        "latitude": "39.021167",
        "longitude": "-76.827083",
        "name": "GODN"
    },
    {
        "key": "GOP6",
        "latitude": "49.913667",
        "longitude": "14.785603",
        "name": "GOP6"
    },
    {
        "key": "GOPE",
        "latitude": "49.913706",
        "longitude": "14.785622",
        "name": "GOPE"
    },
    {
        "key": "GUAM",
        "latitude": "13.589331",
        "longitude": "144.868358",
        "name": "GUAM"
    },
    {
        "key": "GUAT",
        "latitude": "14.590403",
        "longitude": "-90.520183",
        "name": "GUAT"
    },
    {
        "key": "GRAZ",
        "latitude": "47.067128",
        "longitude": "15.493475",
        "name": "GRAZ"
    },
    {
        "key": "GRAS",
        "latitude": "43.754739",
        "longitude": "6.920575",
        "name": "GRAS"
    },
    {
        "key": "GRAC",
        "latitude": "43.754486",
        "longitude": "6.920761",
        "name": "GRAC"
    },
    {
        "key": "HUEG",
        "latitude": "47.833944",
        "longitude": "7.596167",
        "name": "HUEG"
    },
    {
        "key": "HYDE",
        "latitude": "17.417256",
        "longitude": "78.550867",
        "name": "HYDE"
    },
    {
        "key": "KAT1",
        "latitude": "-14.376008",
        "longitude": "132.153269",
        "name": "KAT1"
    },
    {
        "key": "KERG",
        "latitude": "-49.351467",
        "longitude": "70.255524",
        "name": "KERG"
    },
    {
        "key": "JPRE",
        "latitude": "-25.732025",
        "longitude": "28.282633",
        "name": "JPRE"
    },
    {
        "key": "JPLM",
        "latitude": "34.204819",
        "longitude": "-118.173225",
        "name": "JPLM"
    },
    {
        "key": "JOZ2",
        "latitude": "52.097831",
        "longitude": "21.032342",
        "name": "JOZ2"
    },
    {
        "key": "JOZE",
        "latitude": "52.097272",
        "longitude": "21.031533",
        "name": "JOZE"
    },
    {
        "key": "KGNI",
        "latitude": "35.710342",
        "longitude": "139.488122",
        "name": "KGNI"
    },
    {
        "key": "KIR0",
        "latitude": "67.877572",
        "longitude": "21.060233",
        "name": "KIR0"
    },
    {
        "key": "KIT3",
        "latitude": "39.134767",
        "longitude": "66.885450",
        "name": "KIT3"
    },
    {
        "key": "KITG",
        "latitude": "39.133386",
        "longitude": "66.886738",
        "name": "KITG"
    },
    {
        "key": "KIRU",
        "latitude": "67.857350",
        "longitude": "20.968442",
        "name": "KIRU"
    },
    {
        "key": "KIRI",
        "latitude": "1.354581",
        "longitude": "172.922897",
        "name": "KIRI"
    },
    {
        "key": "KIR8",
        "latitude": "67.877542",
        "longitude": "21.060178",
        "name": "KIR8"
    },
    {
        "key": "JOG2",
        "latitude": "-7.763814",
        "longitude": "110.372464",
        "name": "JOG2"
    },
    {
        "key": "JFNG",
        "latitude": "30.515565",
        "longitude": "114.491019",
        "name": "JFNG"
    },
    {
        "key": "INVK",
        "latitude": "68.306200",
        "longitude": "-133.527000",
        "name": "INVK"
    },
    {
        "key": "IQAL",
        "latitude": "63.755964",
        "longitude": "-68.510497",
        "name": "IQAL"
    },
    {
        "key": "INEG",
        "latitude": "21.856153",
        "longitude": "-102.284203",
        "name": "INEG"
    },
    {
        "key": "IISC",
        "latitude": "13.021166",
        "longitude": "77.570376",
        "name": "IISC"
    },
    {
        "key": "IENG",
        "latitude": "45.015133",
        "longitude": "7.639406",
        "name": "IENG"
    },
    {
        "key": "IQQE",
        "latitude": "-20.273542",
        "longitude": "-70.131717",
        "name": "IQQE"
    },
    {
        "key": "IRKJ",
        "latitude": "52.219019",
        "longitude": "104.316178",
        "name": "IRKJ"
    },
    {
        "key": "IZMI",
        "latitude": "38.394808",
        "longitude": "27.081822",
        "name": "IZMI"
    },
    {
        "key": "JCTW",
        "latitude": "-33.951433",
        "longitude": "18.468550",
        "name": "JCTW"
    },
    {
        "key": "ISTA",
        "latitude": "41.104447",
        "longitude": "29.019339",
        "name": "ISTA"
    },
    {
        "key": "ISHI",
        "latitude": "36.208833",
        "longitude": "140.218956",
        "name": "ISHI"
    },
    {
        "key": "IRKM",
        "latitude": "52.219024",
        "longitude": "104.316240",
        "name": "IRKM"
    },
    {
        "key": "MQZG",
        "latitude": "-43.702736",
        "longitude": "172.654705",
        "name": "MQZG"
    }
]